﻿<?xml version="1.0" encoding="utf-8"?>
<!-- Generator: Adobe Illustrator 16.0.3, SVG Export Plug-In . SVG Version: 6.00 Build 0)  -->
<!DOCTYPE svg PUBLIC "-//W3C//DTD SVG 1.1//EN" "http://www.w3.org/Graphics/SVG/1.1/DTD/svg11.dtd">
<svg version="1.1" xmlns="http://www.w3.org/2000/svg" xmlns:xlink="http://www.w3.org/1999/xlink" x="0px" y="0px" width="100px" height="100px" xml:space="preserve">
	<g id="sp1_1_">
	<g id="_x34_">
        <circle opacity="0.3" fill="{0}" cx="50%" cy="50%" r="42.5%" />
        <circle opacity="0.7" fill="{0}" cx="50%" cy="50%" r="33%" />
        <circle opacity="0.2" fill="{0}" cx="50%" cy="50%" r="50%" />
        <circle opacity="0.8" fill="none" stroke="{1}" stroke-width="3" stroke-miterlimit="10" cx="50%" cy="50%" r="33%" />
	</g>
</g>
</svg>
